# plot Impedance for new / old BS without or w/o coating + NEG, and warm pipe 
# impedance (per unit length)
plot_Imp_flat.py -f ZlongWLHC_2layers60.42mm_newBS_7TeV.dat -g "New BS, $ r=60.4 $ mm, $ 50\mu$ m Cu coating" -f ZlongWLHC_3layers50.42mm_newBS_7TeV_NEG.dat -g "New BS, $ r=50.4 $ mm, $ 1.5\mu$ m NEG + $ 50\mu$ m Cu coating" -f ZlongWLHC_2layers50.50mm_nocoating_newBS_7TeV.dat -g "New BS, $ r=50.5 $ mm, no coating" -f ZlongWLHC_2layers30.48mm_BS74_7TeV.dat -g "Old BS, $ r=30.5 $ mm, $ 50\mu$ m Cu coating" -f ZlongWLHC_3layers40.00mm_WP_7TeV_NEG.dat -g "Warm pipe with $ 1.5\mu$ m NEG, $ r=40 $ mm" -l -m
